Text Analytics
…
Now we remove the stop-words.

data(stop_words)

tidy_text <- tidy_text %>%
  anti_join(stop_words)

## Joining, by = "word"

Now we are counting the number of tokens.

tidy_text %>%
  count(word, sort = TRUE) 

## # A tibble: 46,081 x 2
##    word        n
##    <chr>   <int>
##  1 im      13012
##  2 dont    11197
##  3 feel     9168
##  4 time     6697
##  5 life     4464
##  6 ive      4403
##  7 people   4233
##  8 told     4150
##  9 friends  4045
## 10 love     3281
## # ... with 46,071 more rows
…
Now we remove the stop-words.

 data(stop_words)

tidy_text <- tidy_text %>%
  anti_join(stop_words) 

## Joining, by = "word"

 tidy_text %>%
  count(word, sort = TRUE)

## # A tibble: 36,404 x 2
##    word       n
##    <chr>  <int>
##  1 wa     21437
##  2 thi    14961
##  3 im     13016
##  4 feel   12905
##  5 dont   11197
##  6 time    8755
##  7 becaus  8104
##  8 ha      7340
##  9 realli  6780
## 10 thei    6698
## # ... with 36,394 more rows
…
 data(stop_words)

tidy_text2 <- tidy_text2 %>%
  anti_join(stop_words)

## Joining, by = "word"

 tidy_text2 %>%
  count(word, sort = TRUE)

## # A tibble: 54,645 x 2
##    word             n
##    <chr>        <int>
##  1 dont         18010
##  2 feel         13279
##  3 people       10334
##  4 youre        10162
##  5 time          9729
##  6 im            9664
##  7 life          9169
##  8 ni            8913
##  9 talk          6245
## 10 relationship  5557
## # ... with 54,635 more rows
…
tidy_text2 <- data %>%
    unnest_tokens(word, answers) %>%
mutate(word = wordStem(word)) 

 data(stop_words)

tidy_text2 <- tidy_text2 %>%
  anti_join(stop_words)

## Joining, by = "word"

 tidy_text2 %>%
  count(word, sort = TRUE)

## # A tibble: 42,210 x 2
##    word       n
##    <chr>  <int>
##  1 thi    31989
##  2 ar     29063
##  3 feel   21550
##  4 dont   18011
##  5 wa     14041
##  6 thei   13587
##  7 time   11661
##  8 peopl  10537
##  9 becaus  9834
## 10 wai     9797
## # ... with 42,200 more rows
…
 data <- data[1:1000,] # We perform LDA on the rows 1 through 1000 in the data.
corpus <- Corpus(VectorSource(data$q_content), readerControl=list(language="en"))
dtm <- DocumentTermMatrix(corpus, control = list(stopwords = TRUE, minWordLength = 2, removeNumbers = TRUE, removePunctuation = TRUE,  stemDocument = TRUE))
rowTotals <- apply(dtm , 1, sum) #Find the sum of words in each Document
dtm.new   <- dtm[rowTotals> 0, ] #remove all docs without words
lda <- LDA(dtm.new, k = 5) # k is the number of topics to be found.

The code above will create the beta scores for each document per topic (k = 5). Then create bar plots (similar to what we created in class) for each topic for 10 tokens (top_n(10, beta)). Paste the visualization below.

library(dplyr)
lda_td <- tidy(lda)
lda_td

## # A tibble: 71,290 x 3
##    topic term         beta
##    <int> <chr>       <dbl>
##  1     1 aboven  1.11e- 24
##  2     2 aboven  6.27e-118
##  3     3 aboven  2.61e- 22
##  4     4 aboven  4.99e-  5
##  5     5 aboven  5.26e-  5
##  6     1 account 3.77e- 95
##  7     2 account 1.00e-  4
##  8     3 account 3.63e-  4
##  9     4 account 5.17e-  5
## 10     5 account 1.53e-  4
## # ... with 71,280 more rows
…
Based on the visualization in 6.1., what can you say about k? Would you try a larger k or a smaller k?

ANSWER: From the above plot we can see that in all the topics most common words are: dont , like , just ,know , time. We need more different topics for better observe Corpus. That is why we increase K*

6.3.1. K = 2. Paste your visualization in the space below:

 lda <- LDA(dtm.new, k = 2)
lda_td <- tidy(lda)
lda_td

## # A tibble: 28,516 x 3
##    topic term         beta
##    <int> <chr>       <dbl>
##  1     1 aboven   2.79e- 5
##  2     2 aboven   1.24e- 5
##  3     1 account  2.79e- 4
##  4     2 account  4.48e-14
##  5     1 actually 7.34e- 4
##  6     2 actually 1.44e- 3
##  7     1 advice   7.18e- 4
##  8     2 advice   6.65e- 4
##  9     1 already  6.24e- 4
## 10     2 already  5.25e- 4
## # ... with 28,506 more rows
…
K = 3. Paste your visualization in the space below:

 lda <- LDA(dtm.new, k = 3)
lda_td <- tidy(lda)
lda_td

## # A tibble: 42,774 x 3
##    topic term         beta
##    <int> <chr>       <dbl>
##  1     1 aboven   1.80e- 5
##  2     2 aboven   6.71e-16
##  3     3 aboven   5.56e- 5
##  4     1 account  2.09e- 4
##  5     2 account  2.57e- 7
##  6     3 account  2.33e- 4
##  7     1 actually 9.84e- 4
##  8     2 actually 1.51e- 3
##  9     3 actually 6.21e- 4
## 10     1 advice   4.08e- 4
## # ... with 42,764 more rows
…
K = 4. Paste your visualization in the space below:

 lda <- LDA(dtm.new, k = 4)
lda_td <- tidy(lda)
lda_td

## # A tibble: 57,032 x 3
##    topic term         beta
##    <int> <chr>       <dbl>
##  1     1 aboven   2.28e- 5
##  2     2 aboven   3.11e- 5
##  3     3 aboven   8.11e-17
##  4     4 aboven   2.73e- 5
##  5     1 account  3.21e- 4
##  6     2 account  1.10e- 4
##  7     3 account  9.20e- 8
##  8     4 account  6.56e- 5
##  9     1 actually 1.01e- 3
## 10     2 actually 1.20e- 3
## # ... with 57,022 more rows
…
K = 10. Paste your visualization in the space below:

 lda <- LDA(dtm.new, k = 10)
lda_td <- tidy(lda)
lda_td

## # A tibble: 142,580 x 3
##    topic term        beta
##    <int> <chr>      <dbl>
##  1     1 aboven 1.73e-  4
##  2     2 aboven 9.93e-172
##  3     3 aboven 8.91e-  5
##  4     4 aboven 2.19e-172
##  5     5 aboven 1.56e-162
##  6     6 aboven 3.43e-169
##  7     7 aboven 8.69e-156
##  8     8 aboven 2.11e-  8
##  9     9 aboven 1.28e-151
## 10    10 aboven 9.16e- 10
## # ... with 142,570 more rows
…
 data <- data[1:1000,] # We perform LDA on the rows 1 through 1000 in the data.
corpus <- Corpus(VectorSource(data$answers), readerControl=list(language="en"))
dtm <- DocumentTermMatrix(corpus, control = list(stopwords = TRUE, minWordLength = 2, removeNumbers = TRUE, removePunctuation = TRUE,  stemDocument = TRUE))
rowTotals <- apply(dtm , 1, sum) #Find the sum of words in each Document
dtm.new   <- dtm[rowTotals> 0, ] #remove all docs without words
lda <- LDA(dtm.new, k = 10) # k is the number of topics to be found.

7.1. (5 points) The code BELOW will create the beta scores for each document per topic (k = 10). Then create bar plots (similar to what we created in class) for each topic for 10 tokens (top_n(10, beta)). Paste the visualization below.

library(dplyr)
lda_td <- tidy(lda)
lda_td

## # A tibble: 129,910 x 3
##    topic term        beta
##    <int> <chr>      <dbl>
##  1     1 actions 2.62e- 4
##  2     2 actions 3.10e- 4
##  3     3 actions 3.83e- 4
##  4     4 actions 7.08e- 5
##  5     5 actions 6.75e- 5
##  6     6 actions 9.67e- 5
##  7     7 actions 1.81e-14
##  8     8 actions 1.19e- 3
##  9     9 actions 3.32e- 4
## 10    10 actions 3.31e- 4
## # ... with 129,900 more rows
…
7.2. (5 points) Based on the visualization in 7.1., are the tokens in all topics similar? Then what can you say about k? Would you try a larger k or a smaller k?

*** It is difficult to decide from the first k. That is why we need to try different both smaller or larger ks to see and indetify clear differences. Above plot shows us topics almost with similar variations with introducing few topics***

7.3. (10 points) Repeat 7.1. with the following ks:

7.3.1. K = 2. Paste your visualization in the space below:

 lda <- LDA(dtm.new, k = 2)
lda_td <- tidy(lda)
lda_td

## # A tibble: 25,982 x 3
##    topic term          beta
##    <int> <chr>        <dbl>
##  1     1 actions  0.000326 
##  2     2 actions  0.000254 
##  3     1 activity 0.0000965
##  4     2 activity 0.000133 
##  5     1 advice   0.000556 
##  6     2 advice   0.00179  
##  7     1 affected 0.000195 
##  8     2 affected 0.000108 
##  9     1 also     0.00811  
## 10     2 also     0.00436  
## # ... with 25,972 more rows
…
7.3.2. K = 8. Paste your visualization in the space below:

 lda <- LDA(dtm.new, k = 8)
lda_td <- tidy(lda)
lda_td

## # A tibble: 103,928 x 3
##    topic term            beta
##    <int> <chr>          <dbl>
##  1     1 actions  0.000525   
##  2     2 actions  0.000411   
##  3     3 actions  0.000219   
##  4     4 actions  0.0000135  
##  5     5 actions  0.000308   
##  6     6 actions  0.000721   
##  7     7 actions  0.00000107 
##  8     8 actions  0.000143   
##  9     1 activity 0.000000186
## 10     2 activity 0.000253   
## # ... with 103,918 more rows
…
7.3.3. K = 11. Paste your visualization in the space below:

 lda <- LDA(dtm.new, k = 11)
lda_td <- tidy(lda)
lda_td

## # A tibble: 142,901 x 3
##    topic term        beta
##    <int> <chr>      <dbl>
##  1     1 actions 6.21e- 4
##  2     2 actions 7.02e-20
##  3     3 actions 5.19e- 4
##  4     4 actions 3.80e- 4
##  5     5 actions 4.04e- 4
##  6     6 actions 1.68e- 4
##  7     7 actions 7.29e- 5
##  8     8 actions 4.90e- 4
##  9     9 actions 3.54e- 4
## 10    10 actions 1.37e-18
## # ... with 142,891 more rows
…
K = 14. Paste your visualization in the space below:

 lda <- LDA(dtm.new, k = 14)
lda_td <- tidy(lda)
lda_td

## # A tibble: 181,874 x 3
##    topic term             beta
##    <int> <chr>           <dbl>
##  1     1 actions 0.0000323    
##  2     2 actions 0.00000000343
##  3     3 actions 0.000293     
##  4     4 actions 0.0000000245 
##  5     5 actions 0.000300     
##  6     6 actions 0.000486     
##  7     7 actions 0.000667     
##  8     8 actions 0.000519     
##  9     9 actions 0.0000876    
## 10    10 actions 0.000359     
## # ... with 181,864 more rows
…
